-3, 0.279030819059773
-2.750599520383693, 0.1569105605590213
-2.501199040767386, 0.21454665070234685
-2.2501998401278978, 0.16914566412132417
-2.000799360511591, 0.10125926777789451
-1.7498001598721022, 0.056942270830025586
-1.5003996802557953, 0.017343248017724657
-1.2509992006394886, 0.005912064049615392
-1.0015987210231816, 0.0019169407765334576